{
    "app_name": "PyBase",
    "app_version": "1.0",
    "app_description": "This is a python base app.",
    "app_creationdate": "03-08-2020",
    "app_updatedate": "03-08-2020",
    "app_developer": "Imran Shaikh",
    "app_website": "www.bitfalcon.io",
    "app_key": "<APP KEY HERE>",
    "app_secret": "<APP SECRET HERE>"
}